%YAML 1.1
%TAG !u! tag:unity3d.com,2011:
--- !u!1 &1191901840038026
GameObject:
  m_ObjectHideFlags: 0
  m_CorrespondingSourceObject: {fileID: 0}
  m_PrefabInstance: {fileID: 0}
  m_PrefabAsset: {fileID: 0}
  serializedVersion: 6
  m_Component:
  - component: {fileID: 4064067074752334}
  - component: {fileID: 33004489495165434}
  - component: {fileID: 23008703462077812}
  - component: {fileID: 64451614353309390}
  m_Layer: 0
  m_Name: Neo_WallWindowFrame_03_snaps001
  m_TagString: Untagged
  m_Icon: {fileID: 0}
  m_NavMeshLayer: 0
  m_StaticEditorFlags: 8
  m_IsActive: 1
--- !u!4 &4064067074752334
Transform:
  m_ObjectHideFlags: 0
  m_CorrespondingSourceObject: {fileID: 0}
  m_PrefabInstance: {fileID: 0}
  m_PrefabAsset: {fileID: 0}
  m_GameObject: {fileID: 1191901840038026}
  m_LocalRotation: {x: 0, y: 0, z: 0, w: 1}
  m_LocalPosition: {x: 0, y: 0, z: 0}
  m_LocalScale: {x: 1, y: 1, z: 1}
  m_Children:
  - {fileID: 1997920221480720047}
  m_Father: {fileID: 0}
  m_RootOrder: 0
  m_LocalEulerAnglesHint: {x: 0, y: 0, z: 0}
--- !u!33 &33004489495165434
MeshFilter:
  m_ObjectHideFlags: 0
  m_CorrespondingSourceObject: {fileID: 0}
  m_PrefabInstance: {fileID: 0}
  m_PrefabAsset: {fileID: 0}
  m_GameObject: {fileID: 1191901840038026}
  m_Mesh: {fileID: 4300000, guid: 8a279a1c08747fd4185b9a3a0a0bdad6, type: 2}
--- !u!23 &23008703462077812
MeshRenderer:
  m_ObjectHideFlags: 0
  m_CorrespondingSourceObject: {fileID: 0}
  m_PrefabInstance: {fileID: 0}
  m_PrefabAsset: {fileID: 0}
  m_GameObject: {fileID: 1191901840038026}
  m_Enabled: 1
  m_CastShadows: 1
  m_ReceiveShadows: 1
  m_DynamicOccludee: 1
  m_StaticShadowCaster: 0
  m_MotionVectors: 1
  m_LightProbeUsage: 1
  m_ReflectionProbeUsage: 1
  m_RayTracingMode: 2
  m_RayTraceProcedural: 0
  m_RenderingLayerMask: 4294967295
  m_RendererPriority: 0
  m_Materials:
  - {fileID: 2100000, guid: 15cb6b096bb78c7479c93c6e26153387, type: 2}
  - {fileID: 2100000, guid: 8621dfcb3dbf229428e45425021e0875, type: 2}
  m_StaticBatchInfo:
    firstSubMesh: 0
    subMeshCount: 0
  m_StaticBatchRoot: {fileID: 0}
  m_ProbeAnchor: {fileID: 0}
  m_LightProbeVolumeOverride: {fileID: 0}
  m_ScaleInLightmap: 1
  m_ReceiveGI: 1
  m_PreserveUVs: 0
  m_IgnoreNormalsForChartDetection: 0
  m_ImportantGI: 0
  m_StitchLightmapSeams: 0
  m_SelectedEditorRenderState: 2
  m_MinimumChartSize: 4
  m_AutoUVMaxDistance: 0.5
  m_AutoUVMaxAngle: 89
  m_LightmapParameters: {fileID: 0}
  m_SortingLayerID: 0
  m_SortingLayer: 0
  m_SortingOrder: 0
  m_AdditionalVertexStreams: {fileID: 0}
--- !u!64 &64451614353309390
MeshCollider:
  m_ObjectHideFlags: 0
  m_CorrespondingSourceObject: {fileID: 0}
  m_PrefabInstance: {fileID: 0}
  m_PrefabAsset: {fileID: 0}
  m_GameObject: {fileID: 1191901840038026}
  m_Material: {fileID: 0}
  m_IsTrigger: 0
  m_Enabled: 1
  serializedVersion: 4
  m_Convex: 0
  m_CookingOptions: 30
  m_Mesh: {fileID: 4300000, guid: 8b689ec29e7851e4cafefc33df3ff3f0, type: 2}
--- !u!1001 &1993497861623700741
PrefabInstance:
  m_ObjectHideFlags: 0
  serializedVersion: 2
  m_Modification:
    m_TransformParent: {fileID: 4064067074752334}
    m_Modifications:
    - target: {fileID: 1698957219889860, guid: 7185e7270a77b1b4587cedd0415953f9, type: 3}
      propertyPath: m_Name
      value: Neo_Window_04_snaps001 (1)
      objectReference: {fileID: 0}
    - target: {fileID: 4602989943278506, guid: 7185e7270a77b1b4587cedd0415953f9, type: 3}
      propertyPath: m_RootOrder
      value: 0
      objectReference: {fileID: 0}
    - target: {fileID: 4602989943278506, guid: 7185e7270a77b1b4587cedd0415953f9, type: 3}
      propertyPath: m_LocalPosition.x
      value: -0.12100029
      objectReference: {fileID: 0}
    - target: {fileID: 4602989943278506, guid: 7185e7270a77b1b4587cedd0415953f9, type: 3}
      propertyPath: m_LocalPosition.y
      value: 0.30265713
      objectReference: {fileID: 0}
    - target: {fileID: 4602989943278506, guid: 7185e7270a77b1b4587cedd0415953f9, type: 3}
      propertyPath: m_LocalPosition.z
      value: 2.9290009
      objectReference: {fileID: 0}
    - target: {fileID: 4602989943278506, guid: 7185e7270a77b1b4587cedd0415953f9, type: 3}
      propertyPath: m_LocalRotation.w
      value: 0.7071068
      objectReference: {fileID: 0}
    - target: {fileID: 4602989943278506, guid: 7185e7270a77b1b4587cedd0415953f9, type: 3}
      propertyPath: m_LocalRotation.x
      value: -0
      objectReference: {fileID: 0}
    - target: {fileID: 4602989943278506, guid: 7185e7270a77b1b4587cedd0415953f9, type: 3}
      propertyPath: m_LocalRotation.y
      value: 0.7071068
      objectReference: {fileID: 0}
    - target: {fileID: 4602989943278506, guid: 7185e7270a77b1b4587cedd0415953f9, type: 3}
      propertyPath: m_LocalRotation.z
      value: -0
      objectReference: {fileID: 0}
    - target: {fileID: 4602989943278506, guid: 7185e7270a77b1b4587cedd0415953f9, type: 3}
      propertyPath: m_LocalEulerAnglesHint.x
      value: 0
      objectReference: {fileID: 0}
    - target: {fileID: 4602989943278506, guid: 7185e7270a77b1b4587cedd0415953f9, type: 3}
      propertyPath: m_LocalEulerAnglesHint.y
      value: 90
      objectReference: {fileID: 0}
    - target: {fileID: 4602989943278506, guid: 7185e7270a77b1b4587cedd0415953f9, type: 3}
      propertyPath: m_LocalEulerAnglesHint.z
      value: 0
      objectReference: {fileID: 0}
    m_RemovedComponents: []
  m_SourcePrefab: {fileID: 100100000, guid: 7185e7270a77b1b4587cedd0415953f9, type: 3}
--- !u!4 &1997920221480720047 stripped
Transform:
  m_CorrespondingSourceObject: {fileID: 4602989943278506, guid: 7185e7270a77b1b4587cedd0415953f9, type: 3}
  m_PrefabInstance: {fileID: 1993497861623700741}
  m_PrefabAsset: {fileID: 0}
